// Jest Snapshot v1, https://goo.gl/fbAQLP

exports[`Queue Queue should render correctly 1`] = `
ShallowWrapper {
  "state": Object {
    "items": Array [
      Object {
        "courseId": "COMP 141 A",
        "id": "id",
        "place_in_line": 1,
        "studentId": 10g49,
        "studentName": "Karen Postupac",
        "ticket_number": 2,
        "topic": "firebase",
      },
      Object {
        "courseId": "COMP 220 A",
        "id": "id2",
        "place_in_line": 2,
        "studentId": 100003,
        "studentName": "Dan Smith",
        "ticket_number": 5,
        "topic": "for loops",
      },
    ],
  },
}
`;

exports[`Queue QueueItem should render correctly 1`] = `ShallowWrapper {}`;
