// Jest Snapshot v1, https://goo.gl/fbAQLP

exports[`TopicCourse CourseButton should exist when there is a course in the state of TopicCourse 1`] = `ShallowWrapper {}`;

exports[`TopicCourse CourseButton should render correctly (buttons are colored false) 1`] = `ShallowWrapper {}`;

exports[`TopicCourse CourseButton should render correctly (buttons are colored true) 1`] = `ShallowWrapper {}`;

exports[`TopicCourse TandC should render correctly 1`] = `ShallowWrapper {}`;

exports[`TopicCourse TandC should render correctly when the state is set 1`] = `ShallowWrapper {}`;

exports[`TopicCourse TopicButton should render correctly (buttons should color) 1`] = `ShallowWrapper {}`;

exports[`TopicCourse TopicButton should render correctly (buttons should color) 2`] = `ShallowWrapper {}`;
